Library/Bee/artifacts/mvdfrm/Unity.Services.Core.Analytics.ref.dll_162A2A0052BC5016.mvfrm
Library/Bee/artifacts/mvdfrm/Unity.Services.Core.Environments.ref.dll_F61DE9FC9E518746.mvfrm
Library/Bee/artifacts/mvdfrm/Unity.Services.Core.ref.dll_A9B35628DE7A4E0E.mvfrm
Library/Bee/artifacts/mvdfrm/Unity.TextMeshPro.ref.dll_16439CD557D572F2.mvfrm
Library/Bee/artifacts/mvdfrm/Unity.Timeline.ref.dll_C47AD39001E77048.mvfrm
Library/Bee/artifacts/mvdfrm/Unity.VisualScripting.Core.ref.dll_9F10ABE6F543486D.mvfrm
Library/Bee/artifacts/mvdfrm/Unity.VisualScripting.Flow.ref.dll_E6218C3D774CBD1C.mvfrm
Library/Bee/artifacts/mvdfrm/Unity.VisualScripting.State.ref.dll_807C63F7C24D48D9.mvfrm
Library/Bee/artifacts/mvdfrm/UnityEngine.UI.ref.dll_6B5C9FE847018E19.mvfrm
Library/Bee/artifacts/mvdfrm/UnityEngine.AIModule.dll_5C5E37D2CBADF795.mvfrm
Library/Bee/artifacts/mvdfrm/UnityEngine.ARModule.dll_15D0FCD628CB565E.mvfrm
Library/Bee/artifacts/mvdfrm/UnityEngine.AccessibilityModule.dll_46D8F563254020D5.mvfrm
Library/Bee/artifacts/mvdfrm/UnityEngine.AndroidJNIModule.dll_47846655D2FB87D3.mvfrm
Library/Bee/artifacts/mvdfrm/UnityEngine.AnimationModule.dll_39541F77DFC5423B.mvfrm
Library/Bee/artifacts/mvdfrm/UnityEngine.AssetBundleModule.dll_9AA205E7292EBEC9.mvfrm
Library/Bee/artifacts/mvdfrm/UnityEngine.AudioModule.dll_B6850B2810371C6D.mvfrm
Library/Bee/artifacts/mvdfrm/UnityEngine.ClothModule.dll_1D6D6822EA53FB51.mvfrm
Library/Bee/artifacts/mvdfrm/UnityEngine.ClusterInputModule.dll_EEA45587587C7D5D.mvfrm
Library/Bee/artifacts/mvdfrm/UnityEngine.ClusterRendererModule.dll_642844E5712134B4.mvfrm
Library/Bee/artifacts/mvdfrm/UnityEngine.CoreModule.dll_E21FAF7D8B88B68C.mvfrm
Library/Bee/artifacts/mvdfrm/UnityEngine.CrashReportingModule.dll_B42F9128EEB8D9A4.mvfrm
Library/Bee/artifacts/mvdfrm/UnityEngine.DSPGraphModule.dll_48F12C8D7B1718CA.mvfrm
Library/Bee/artifacts/mvdfrm/UnityEngine.DirectorModule.dll_439FCB2408B647A9.mvfrm
Library/Bee/artifacts/mvdfrm/UnityEngine.GIModule.dll_F49A80E0675CDFAF.mvfrm
Library/Bee/artifacts/mvdfrm/UnityEngine.GameCenterModule.dll_71D1B070993C78C4.mvfrm
Library/Bee/artifacts/mvdfrm/UnityEngine.GridModule.dll_BF90CB6BA3DD4C83.mvfrm
Library/Bee/artifacts/mvdfrm/UnityEngine.HotReloadModule.dll_BA9CDD7DBAF85DBD.mvfrm
Library/Bee/artifacts/mvdfrm/UnityEngine.IMGUIModule.dll_EEE4AA8ED668B04E.mvfrm
Library/Bee/artifacts/mvdfrm/UnityEngine.ImageConversionModule.dll_D01A4295F345ECA8.mvfrm
Library/Bee/artifacts/mvdfrm/UnityEngine.InputLegacyModule.dll_2BE72105C12074BA.mvfrm
Library/Bee/artifacts/mvdfrm/UnityEngine.InputModule.dll_1CFAD2D8866F4111.mvfrm
Library/Bee/artifacts/mvdfrm/UnityEngine.JSONSerializeModule.dll_A6F07E9F247B815F.mvfrm
Library/Bee/artifacts/mvdfrm/UnityEngine.LocalizationModule.dll_2CF11FD9EFF87056.mvfrm
Library/Bee/artifacts/mvdfrm/UnityEngine.ParticleSystemModule.dll_0741DA755CCA6532.mvfrm
Library/Bee/artifacts/mvdfrm/UnityEngine.PerformanceReportingModule.dll_7F13BC337061D74B.mvfrm
Library/Bee/artifacts/mvdfrm/UnityEngine.Physics2DModule.dll_85FA0F6880C239D0.mvfrm
Library/Bee/artifacts/mvdfrm/UnityEngine.PhysicsModule.dll_6D14212AF07346DE.mvfrm
Library/Bee/artifacts/mvdfrm/UnityEngine.ProfilerModule.dll_75E6045AA20FCEB6.mvfrm
Library/Bee/artifacts/mvdfrm/UnityEngine.RuntimeInitializeOnLoadManagerInitializerModule.dll_D3517A7666034A99.mvfrm
Library/Bee/artifacts/mvdfrm/UnityEngine.ScreenCaptureModule.dll_C0D82C2438E7ADC1.mvfrm
Library/Bee/artifacts/mvdfrm/UnityEngine.SharedInternalsModule.dll_542B816B6A73E7F8.mvfrm
Library/Bee/artifacts/mvdfrm/UnityEngine.SpriteMaskModule.dll_5AFE2300BAAC0E3E.mvfrm
Library/Bee/artifacts/mvdfrm/UnityEngine.SpriteShapeModule.dll_B4033341DED0F6D3.mvfrm
Library/Bee/artifacts/mvdfrm/UnityEngine.StreamingModule.dll_EDE90CC82F4CF979.mvfrm
Library/Bee/artifacts/mvdfrm/UnityEngine.SubstanceModule.dll_CA9421117A9FF787.mvfrm
Library/Bee/artifacts/mvdfrm/UnityEngine.SubsystemsModule.dll_C5AB896288F3F651.mvfrm
Library/Bee/artifacts/mvdfrm/UnityEngine.TLSModule.dll_0DF7D8A8A76BB032.mvfrm
Library/Bee/artifacts/mvdfrm/UnityEngine.TerrainModule.dll_875A9C99C6318FCC.mvfrm
Library/Bee/artifacts/mvdfrm/UnityEngine.TerrainPhysicsModule.dll_07BC8348760D5FBF.mvfrm
Library/Bee/artifacts/mvdfrm/UnityEngine.TextCoreFontEngineModule.dll_2A8236578473BA8A.mvfrm
Library/Bee/artifacts/mvdfrm/UnityEngine.TextCoreTextEngineModule.dll_726A6CC913F773A8.mvfrm
Library/Bee/artifacts/mvdfrm/UnityEngine.TextRenderingModule.dll_EA179E2EF01F2DB6.mvfrm
Library/Bee/artifacts/mvdfrm/UnityEngine.TilemapModule.dll_2657041ADDEE70D5.mvfrm
Library/Bee/artifacts/mvdfrm/UnityEngine.UIElementsModule.dll_C9E9EACA8C203248.mvfrm
Library/Bee/artifacts/mvdfrm/UnityEngine.UIElementsNativeModule.dll_C5AFCF029DF3099F.mvfrm
Library/Bee/artifacts/mvdfrm/UnityEngine.UIModule.dll_57D1D60027F4FD41.mvfrm
Library/Bee/artifacts/mvdfrm/UnityEngine.UNETModule.dll_74C5F766D897AC05.mvfrm
Library/Bee/artifacts/mvdfrm/UnityEngine.UmbraModule.dll_3159B7409D5DC7E0.mvfrm
Library/Bee/artifacts/mvdfrm/UnityEngine.UnityAnalyticsModule.dll_26E14B3F08F1B72E.mvfrm
Library/Bee/artifacts/mvdfrm/UnityEngine.UnityConnectModule.dll_5C676480A17CAB42.mvfrm
Library/Bee/artifacts/mvdfrm/UnityEngine.UnityCurlModule.dll_6C70C0A94FD93428.mvfrm
Library/Bee/artifacts/mvdfrm/UnityEngine.UnityTestProtocolModule.dll_65BBF95380AF5C96.mvfrm
Library/Bee/artifacts/mvdfrm/UnityEngine.UnityWebRequestAssetBundleModule.dll_785F910211388C7F.mvfrm
Library/Bee/artifacts/mvdfrm/UnityEngine.UnityWebRequestAudioModule.dll_F7101011F6CCA1E3.mvfrm
Library/Bee/artifacts/mvdfrm/UnityEngine.UnityWebRequestModule.dll_E1B94A3FFE3A8727.mvfrm
Library/Bee/artifacts/mvdfrm/UnityEngine.UnityWebRequestTextureModule.dll_4180AD39A4B4A218.mvfrm
Library/Bee/artifacts/mvdfrm/UnityEngine.UnityWebRequestWWWModule.dll_3D2CB22503B73014.mvfrm
Library/Bee/artifacts/mvdfrm/UnityEngine.VFXModule.dll_8ED671177DD9199F.mvfrm
Library/Bee/artifacts/mvdfrm/UnityEngine.VRModule.dll_AAA3FC85C9AF82B9.mvfrm
Library/Bee/artifacts/mvdfrm/UnityEngine.VehiclesModule.dll_BB62C4A382E01744.mvfrm
Library/Bee/artifacts/mvdfrm/UnityEngine.VideoModule.dll_DB8E8F92D2C93812.mvfrm
Library/Bee/artifacts/mvdfrm/UnityEngine.VirtualTexturingModule.dll_EA3C837176A18A2A.mvfrm
Library/Bee/artifacts/mvdfrm/UnityEngine.WindModule.dll_586E8AA61CBF34F5.mvfrm
Library/Bee/artifacts/mvdfrm/UnityEngine.XRModule.dll_DD62BF8A52E9D017.mvfrm
Library/Bee/artifacts/mvdfrm/UnityEngine.dll_CFC6463D1A0DAD49.mvfrm
Library/Bee/artifacts/mvdfrm/Unity.VisualScripting.Antlr3.Runtime.dll_2B2768996F4CE217.mvfrm