Library/Bee/artifacts/mvdfrm/Unity.Services.Core.Internal.ref.dll_1A693ED936C5C9EF.mvfrm
Library/Bee/artifacts/mvdfrm/Unity.Services.Core.ref.dll_8733AE466239FA82.mvfrm
Library/Bee/artifacts/mvdfrm/UnityEngine.UI.ref.dll_FAE6DBEA21006BE5.mvfrm
Library/Bee/artifacts/mvdfrm/UnityEngine.AIModule.dll_54E960817D9B2559.mvfrm
Library/Bee/artifacts/mvdfrm/UnityEngine.ARModule.dll_0E5C2584DAB88422.mvfrm
Library/Bee/artifacts/mvdfrm/UnityEngine.AccessibilityModule.dll_DB56B2FFF1FD3A51.mvfrm
Library/Bee/artifacts/mvdfrm/UnityEngine.AndroidJNIModule.dll_A2B1A6C4175B9797.mvfrm
Library/Bee/artifacts/mvdfrm/UnityEngine.AnimationModule.dll_C938F8ADE5559CB7.mvfrm
Library/Bee/artifacts/mvdfrm/UnityEngine.AssetBundleModule.dll_32566FCD998580C5.mvfrm
Library/Bee/artifacts/mvdfrm/UnityEngine.AudioModule.dll_41D995E18A6277E9.mvfrm
Library/Bee/artifacts/mvdfrm/UnityEngine.ClothModule.dll_A8C1F2DC647F56CD.mvfrm
Library/Bee/artifacts/mvdfrm/UnityEngine.ClusterInputModule.dll_F2018D422B05EDA1.mvfrm
Library/Bee/artifacts/mvdfrm/UnityEngine.ClusterRendererModule.dll_A63DA2DF684295B0.mvfrm
Library/Bee/artifacts/mvdfrm/UnityEngine.CoreModule.dll_0914D0CB6B8F04D0.mvfrm
Library/Bee/artifacts/mvdfrm/UnityEngine.CrashReportingModule.dll_EB4951BF4914BA68.mvfrm
Library/Bee/artifacts/mvdfrm/UnityEngine.DSPGraphModule.dll_D3744BA61874D80E.mvfrm
Library/Bee/artifacts/mvdfrm/UnityEngine.DirectorModule.dll_CE22EA3CA61406ED.mvfrm
Library/Bee/artifacts/mvdfrm/UnityEngine.GIModule.dll_ED25A98F194A0D73.mvfrm
Library/Bee/artifacts/mvdfrm/UnityEngine.GameCenterModule.dll_CCFEF0DEDD9C8888.mvfrm
Library/Bee/artifacts/mvdfrm/UnityEngine.GridModule.dll_E685ECB983E39AC7.mvfrm
Library/Bee/artifacts/mvdfrm/UnityEngine.HotReloadModule.dll_4A81B6B3C088B839.mvfrm
Library/Bee/artifacts/mvdfrm/UnityEngine.IMGUIModule.dll_7A39354850940BCA.mvfrm
Library/Bee/artifacts/mvdfrm/UnityEngine.ImageConversionModule.dll_122FA08FEA674DA4.mvfrm
Library/Bee/artifacts/mvdfrm/UnityEngine.InputLegacyModule.dll_C39B8AEC317736B6.mvfrm
Library/Bee/artifacts/mvdfrm/UnityEngine.InputModule.dll_A84F5D92009A9C8D.mvfrm
Library/Bee/artifacts/mvdfrm/UnityEngine.JSONSerializeModule.dll_3B6E3C3BF1389ADB.mvfrm
Library/Bee/artifacts/mvdfrm/UnityEngine.LocalizationModule.dll_304E5794C281E09A.mvfrm
Library/Bee/artifacts/mvdfrm/UnityEngine.ParticleSystemModule.dll_3E5B9B0BB72645F6.mvfrm
Library/Bee/artifacts/mvdfrm/UnityEngine.PerformanceReportingModule.dll_91F42B5024FF698F.mvfrm
Library/Bee/artifacts/mvdfrm/UnityEngine.Physics2DModule.dll_15DEE89E8652944C.mvfrm
Library/Bee/artifacts/mvdfrm/UnityEngine.PhysicsModule.dll_F563E6A6803F29DA.mvfrm
Library/Bee/artifacts/mvdfrm/UnityEngine.ProfilerModule.dll_006923733F6D8DFA.mvfrm
Library/Bee/artifacts/mvdfrm/UnityEngine.RuntimeInitializeOnLoadManagerInitializerModule.dll_68D659CDC1929D15.mvfrm
Library/Bee/artifacts/mvdfrm/UnityEngine.ScreenCaptureModule.dll_5555E9C105A4C73D.mvfrm
Library/Bee/artifacts/mvdfrm/UnityEngine.SharedInternalsModule.dll_9640DF65619548F4.mvfrm
Library/Bee/artifacts/mvdfrm/UnityEngine.SpriteMaskModule.dll_B62B636EFF0C1E02.mvfrm
Library/Bee/artifacts/mvdfrm/UnityEngine.SpriteShapeModule.dll_4BB79D284F27B8CF.mvfrm
Library/Bee/artifacts/mvdfrm/UnityEngine.StreamingModule.dll_7DCDE5FE34DD53F5.mvfrm
Library/Bee/artifacts/mvdfrm/UnityEngine.SubstanceModule.dll_5A78FA4780305203.mvfrm
Library/Bee/artifacts/mvdfrm/UnityEngine.SubsystemsModule.dll_20D8C9D0CD540615.mvfrm
Library/Bee/artifacts/mvdfrm/UnityEngine.TLSModule.dll_00B1614DC6FC742E.mvfrm
Library/Bee/artifacts/mvdfrm/UnityEngine.TerrainModule.dll_0FAA621555FD72C8.mvfrm
Library/Bee/artifacts/mvdfrm/UnityEngine.TerrainPhysicsModule.dll_3ED643DED0694083.mvfrm
Library/Bee/artifacts/mvdfrm/UnityEngine.TextCoreFontEngineModule.dll_D4CA752082B7AC4E.mvfrm
Library/Bee/artifacts/mvdfrm/UnityEngine.TextCoreTextEngineModule.dll_1CB2AB92123B656C.mvfrm
Library/Bee/artifacts/mvdfrm/UnityEngine.TextRenderingModule.dll_7E955BCBBCDC4732.mvfrm
Library/Bee/artifacts/mvdfrm/UnityEngine.TilemapModule.dll_AEA6C9966DBA53D1.mvfrm
Library/Bee/artifacts/mvdfrm/UnityEngine.UIElementsModule.dll_25172B38D080420C.mvfrm
Library/Bee/artifacts/mvdfrm/UnityEngine.UIElementsNativeModule.dll_1EBD8C61D08C6AE3.mvfrm
Library/Bee/artifacts/mvdfrm/UnityEngine.UIModule.dll_505CFEAED9E22B05.mvfrm
Library/Bee/artifacts/mvdfrm/UnityEngine.UNETModule.dll_9BBB18B4B89DFA49.mvfrm
Library/Bee/artifacts/mvdfrm/UnityEngine.UmbraModule.dll_BCAE41FA1789235C.mvfrm
Library/Bee/artifacts/mvdfrm/UnityEngine.UnityAnalyticsModule.dll_5DFB0BD5634D97F2.mvfrm
Library/Bee/artifacts/mvdfrm/UnityEngine.UnityConnectModule.dll_5FC49C3B74061B86.mvfrm
Library/Bee/artifacts/mvdfrm/UnityEngine.UnityCurlModule.dll_FC5599DF55698EA4.mvfrm
Library/Bee/artifacts/mvdfrm/UnityEngine.UnityTestProtocolModule.dll_5C9AE000A450F512.mvfrm
Library/Bee/artifacts/mvdfrm/UnityEngine.UnityWebRequestAssetBundleModule.dll_C3B82D4BA9516043.mvfrm
Library/Bee/artifacts/mvdfrm/UnityEngine.UnityWebRequestAudioModule.dll_09F07F2EAB6A3427.mvfrm
Library/Bee/artifacts/mvdfrm/UnityEngine.UnityWebRequestModule.dll_23CEA839F55BE823.mvfrm
Library/Bee/artifacts/mvdfrm/UnityEngine.UnityWebRequestTextureModule.dll_5C65DE834DDCE4DC.mvfrm
Library/Bee/artifacts/mvdfrm/UnityEngine.UnityWebRequestWWWModule.dll_E774F0EE01FB21D8.mvfrm
Library/Bee/artifacts/mvdfrm/UnityEngine.VFXModule.dll_818FF9BC9D69DD9B.mvfrm
Library/Bee/artifacts/mvdfrm/UnityEngine.VRModule.dll_A32F25347B9CB07D.mvfrm
Library/Bee/artifacts/mvdfrm/UnityEngine.VehiclesModule.dll_45E5E3BC203DD688.mvfrm
Library/Bee/artifacts/mvdfrm/UnityEngine.VideoModule.dll_66E31A4C4CF4938E.mvfrm
Library/Bee/artifacts/mvdfrm/UnityEngine.VirtualTexturingModule.dll_434A40D0A93AEB6E.mvfrm
Library/Bee/artifacts/mvdfrm/UnityEngine.WindModule.dll_7F63ABF3FCC58339.mvfrm
Library/Bee/artifacts/mvdfrm/UnityEngine.XRModule.dll_D5EDE83904D6FDDB.mvfrm
Library/Bee/artifacts/mvdfrm/UnityEngine.dll_DFE4951455588BC5.mvfrm
Library/Bee/artifacts/mvdfrm/Unity.VisualScripting.Antlr3.Runtime.dll_2B2768996F4CE217.mvfrm