Library/Bee/artifacts/mvdfrm/Unity.Services.Core.ref.dll_253BD6218BD82EEC.mvfrm
Library/Bee/artifacts/mvdfrm/UnityEngine.UI.ref.dll_F37DC0DEF554539B.mvfrm
Library/Bee/artifacts/mvdfrm/UnityEngine.AIModule.dll_D6CE9C79EAAD60EA.mvfrm
Library/Bee/artifacts/mvdfrm/UnityEngine.AccessibilityModule.dll_0B7C227E352D6A90.mvfrm
Library/Bee/artifacts/mvdfrm/UnityEngine.AndroidJNIModule.dll_F6BD7FF9E1629BA8.mvfrm
Library/Bee/artifacts/mvdfrm/UnityEngine.AnimationModule.dll_6DB9AF07451D2536.mvfrm
Library/Bee/artifacts/mvdfrm/UnityEngine.AssetBundleModule.dll_D2175AB8DF919F24.mvfrm
Library/Bee/artifacts/mvdfrm/UnityEngine.AudioModule.dll_4232D7908DD148A8.mvfrm
Library/Bee/artifacts/mvdfrm/UnityEngine.ClothModule.dll_A91B348B67EE278C.mvfrm
Library/Bee/artifacts/mvdfrm/UnityEngine.ClusterInputModule.dll_A1A0625CE3A68DD2.mvfrm
Library/Bee/artifacts/mvdfrm/UnityEngine.ClusterRendererModule.dll_4CCF6E85B87DD3CF.mvfrm
Library/Bee/artifacts/mvdfrm/UnityEngine.CoreModule.dll_7EA6DF78DC94CC81.mvfrm
Library/Bee/artifacts/mvdfrm/UnityEngine.CrashReportingModule.dll_AD547E3F7B09BAB9.mvfrm
Library/Bee/artifacts/mvdfrm/UnityEngine.DSPGraphModule.dll_87943EAB54EC83FF.mvfrm
Library/Bee/artifacts/mvdfrm/UnityEngine.DirectorModule.dll_8242DD41E28BB2DE.mvfrm
Library/Bee/artifacts/mvdfrm/UnityEngine.GIModule.dll_6F0AE587865C4904.mvfrm
Library/Bee/artifacts/mvdfrm/UnityEngine.GameCenterModule.dll_210ACA14A7A38C99.mvfrm
Library/Bee/artifacts/mvdfrm/UnityEngine.GridModule.dll_5C17FB66F4E96278.mvfrm
Library/Bee/artifacts/mvdfrm/UnityEngine.HotReloadModule.dll_EF026D0D205040B8.mvfrm
Library/Bee/artifacts/mvdfrm/UnityEngine.IMGUIModule.dll_7A9276F75402DC89.mvfrm
Library/Bee/artifacts/mvdfrm/UnityEngine.ImageConversionModule.dll_B8C16C363AA28BC3.mvfrm
Library/Bee/artifacts/mvdfrm/UnityEngine.InputLegacyModule.dll_635C75D777835515.mvfrm
Library/Bee/artifacts/mvdfrm/UnityEngine.InputModule.dll_A8A89F4104096D4C.mvfrm
Library/Bee/artifacts/mvdfrm/UnityEngine.JSONSerializeModule.dll_6B93ABBA3468CB1A.mvfrm
Library/Bee/artifacts/mvdfrm/UnityEngine.LocalizationModule.dll_DFED2CAF7B2280CB.mvfrm
Library/Bee/artifacts/mvdfrm/UnityEngine.ParticleSystemModule.dll_0066C78BE91B4647.mvfrm
Library/Bee/artifacts/mvdfrm/UnityEngine.PerformanceReportingModule.dll_B1B8E4FF4E272240.mvfrm
Library/Bee/artifacts/mvdfrm/UnityEngine.Physics2DModule.dll_BA5F9EF7E61A1CCB.mvfrm
Library/Bee/artifacts/mvdfrm/UnityEngine.PhysicsModule.dll_ADF0E2AC2D8A1879.mvfrm
Library/Bee/artifacts/mvdfrm/UnityEngine.ProfilerModule.dll_B48916787BE539EB.mvfrm
Library/Bee/artifacts/mvdfrm/UnityEngine.RuntimeInitializeOnLoadManagerInitializerModule.dll_B8C3EAA41D0DA394.mvfrm
Library/Bee/artifacts/mvdfrm/UnityEngine.ScreenCaptureModule.dll_857B593F48D4F77C.mvfrm
Library/Bee/artifacts/mvdfrm/UnityEngine.SharedInternalsModule.dll_3CD2AB0BB1D08713.mvfrm
Library/Bee/artifacts/mvdfrm/UnityEngine.SpriteMaskModule.dll_0A373CA4C9132213.mvfrm
Library/Bee/artifacts/mvdfrm/UnityEngine.SpriteShapeModule.dll_EB7888139533D72E.mvfrm
Library/Bee/artifacts/mvdfrm/UnityEngine.StreamingModule.dll_224E9C5794A4DC74.mvfrm
Library/Bee/artifacts/mvdfrm/UnityEngine.SubstanceModule.dll_FEF9B0A0DFF7DA82.mvfrm
Library/Bee/artifacts/mvdfrm/UnityEngine.SubsystemsModule.dll_74E4A306975B0A26.mvfrm
Library/Bee/artifacts/mvdfrm/UnityEngine.TLSModule.dll_1F7FB4D417F8230D.mvfrm
Library/Bee/artifacts/mvdfrm/UnityEngine.TerrainModule.dll_C8375E1B03486167.mvfrm
Library/Bee/artifacts/mvdfrm/UnityEngine.TerrainPhysicsModule.dll_00E1705F025E40D4.mvfrm
Library/Bee/artifacts/mvdfrm/UnityEngine.TextCoreFontEngineModule.dll_700C40AD0F97B8DF.mvfrm
Library/Bee/artifacts/mvdfrm/UnityEngine.TextCoreTextEngineModule.dll_B7F4771E9F1B71FD.mvfrm
Library/Bee/artifacts/mvdfrm/UnityEngine.TextRenderingModule.dll_AEBACB4A000C7771.mvfrm
Library/Bee/artifacts/mvdfrm/UnityEngine.TilemapModule.dll_6733C59C1B054270.mvfrm
Library/Bee/artifacts/mvdfrm/UnityEngine.UIElementsModule.dll_7923046E9A87461D.mvfrm
Library/Bee/artifacts/mvdfrm/UnityEngine.UIElementsNativeModule.dll_5DE3664403510F54.mvfrm
Library/Bee/artifacts/mvdfrm/UnityEngine.UIModule.dll_D2423AA746F46696.mvfrm
Library/Bee/artifacts/mvdfrm/UnityEngine.UNETModule.dll_114D276229A3C1FA.mvfrm
Library/Bee/artifacts/mvdfrm/UnityEngine.UmbraModule.dll_BD0783A91AF7F41B.mvfrm
Library/Bee/artifacts/mvdfrm/UnityEngine.UnityAnalyticsModule.dll_2006385595429843.mvfrm
Library/Bee/artifacts/mvdfrm/UnityEngine.UnityConnectModule.dll_0F6371562CA6BBB7.mvfrm
Library/Bee/artifacts/mvdfrm/UnityEngine.UnityCurlModule.dll_A0D65038B5311723.mvfrm
Library/Bee/artifacts/mvdfrm/UnityEngine.UnityTestProtocolModule.dll_F54CF9D03E75BD11.mvfrm
Library/Bee/artifacts/mvdfrm/UnityEngine.UnityWebRequestAssetBundleModule.dll_154582F1110EB554.mvfrm
Library/Bee/artifacts/mvdfrm/UnityEngine.UnityWebRequestAudioModule.dll_29B538DDD491ECD8.mvfrm
Library/Bee/artifacts/mvdfrm/UnityEngine.UnityWebRequestModule.dll_CA6073E045972642.mvfrm
Library/Bee/artifacts/mvdfrm/UnityEngine.UnityWebRequestTextureModule.dll_49E0F6F1D7690DAD.mvfrm
Library/Bee/artifacts/mvdfrm/UnityEngine.UnityWebRequestWWWModule.dll_82B6BC7A8EDB2E69.mvfrm
Library/Bee/artifacts/mvdfrm/UnityEngine.VFXModule.dll_A05E4D42EE658C7A.mvfrm
Library/Bee/artifacts/mvdfrm/UnityEngine.VRModule.dll_2514612CE8AEEC0E.mvfrm
Library/Bee/artifacts/mvdfrm/UnityEngine.VehiclesModule.dll_FA05D6C15CB58279.mvfrm
Library/Bee/artifacts/mvdfrm/UnityEngine.VideoModule.dll_673C5BFB5063644D.mvfrm
Library/Bee/artifacts/mvdfrm/UnityEngine.VirtualTexturingModule.dll_82701AB2DBFF8FDF.mvfrm
Library/Bee/artifacts/mvdfrm/UnityEngine.WindModule.dll_F4F5BAA16DCB4AEA.mvfrm
Library/Bee/artifacts/mvdfrm/UnityEngine.XRModule.dll_57D3243171E9396C.mvfrm
Library/Bee/artifacts/mvdfrm/UnityEngine.dll_4920EB502244D544.mvfrm
Library/Bee/artifacts/mvdfrm/Unity.VisualScripting.Antlr3.Runtime.dll_2B2768996F4CE217.mvfrm