Library/Bee/artifacts/mvdfrm/Unity.EditorCoroutines.Editor.ref.dll_34ED10A34098B2DB.mvfrm
Library/Bee/artifacts/mvdfrm/Unity.Performance.Profile-Analyzer.Editor.ref.dll_65A192712782EB2B.mvfrm
Library/Bee/artifacts/mvdfrm/Unity.PlasticSCM.Editor.ref.dll_257AEB342BE77856.mvfrm
Library/Bee/artifacts/mvdfrm/Unity.Rider.Editor.ref.dll_9B5591808ABA37AF.mvfrm
Library/Bee/artifacts/mvdfrm/Unity.Services.Core.Analytics.ref.dll_EDA1682A714EA6BF.mvfrm
Library/Bee/artifacts/mvdfrm/Unity.Services.Core.Environments.ref.dll_7E0AC2CDE81D9C6D.mvfrm
Library/Bee/artifacts/mvdfrm/Unity.Services.Core.ref.dll_131AC9C5EC6E6517.mvfrm
Library/Bee/artifacts/mvdfrm/Unity.Sysroot.Linux_x86_64.ref.dll_24C7B1A47E18827F.mvfrm
Library/Bee/artifacts/mvdfrm/Unity.SysrootPackage.Editor.ref.dll_51BD9AC91712BC0C.mvfrm
Library/Bee/artifacts/mvdfrm/Unity.TestTools.CodeCoverage.Editor.OpenCover.Model.ref.dll_D3B9364D6FB03093.mvfrm
Library/Bee/artifacts/mvdfrm/Unity.TestTools.CodeCoverage.Editor.OpenCover.Mono.Reflection.ref.dll_E668CD773429A040.mvfrm
Library/Bee/artifacts/mvdfrm/Unity.TestTools.CodeCoverage.Editor.ref.dll_F09CF4826CE11CD9.mvfrm
Library/Bee/artifacts/mvdfrm/Unity.TextMeshPro.Editor.ref.dll_159E061D77A10B86.mvfrm
Library/Bee/artifacts/mvdfrm/Unity.TextMeshPro.ref.dll_84A4293DBDD182DB.mvfrm
Library/Bee/artifacts/mvdfrm/Unity.Timeline.Editor.ref.dll_0D3D3C0B73557612.mvfrm
Library/Bee/artifacts/mvdfrm/Unity.Timeline.ref.dll_621CDDF9C514DF8F.mvfrm
Library/Bee/artifacts/mvdfrm/Unity.Toolchain.Linux-x86_64.ref.dll_0E588C82BB6A80D3.mvfrm
Library/Bee/artifacts/mvdfrm/Unity.VSCode.Editor.ref.dll_3628369EB48E4C19.mvfrm
Library/Bee/artifacts/mvdfrm/Unity.VisualScripting.Core.Editor.ref.dll_EDC8690F57C5BDFD.mvfrm
Library/Bee/artifacts/mvdfrm/Unity.VisualScripting.Core.ref.dll_D75DF4EA1AFE54F4.mvfrm
Library/Bee/artifacts/mvdfrm/Unity.VisualScripting.Flow.Editor.ref.dll_6AF951BE66A4493E.mvfrm
Library/Bee/artifacts/mvdfrm/Unity.VisualScripting.Flow.ref.dll_1E6ED5409D07C9A3.mvfrm
Library/Bee/artifacts/mvdfrm/Unity.VisualScripting.SettingsProvider.Editor.ref.dll_A1A44354E0B583A8.mvfrm
Library/Bee/artifacts/mvdfrm/Unity.VisualScripting.Shared.Editor.ref.dll_9669F6EBFF6DFFB7.mvfrm
Library/Bee/artifacts/mvdfrm/Unity.VisualScripting.State.Editor.ref.dll_E03858E727F23F6F.mvfrm
Library/Bee/artifacts/mvdfrm/Unity.VisualScripting.State.ref.dll_D91762B7076BE462.mvfrm
Library/Bee/artifacts/mvdfrm/Unity.VisualStudio.Editor.ref.dll_3A975DBA53ABA4AD.mvfrm
Library/Bee/artifacts/mvdfrm/UnityEditor.UI.ref.dll_4C98D3F7040CD4F5.mvfrm
Library/Bee/artifacts/mvdfrm/UnityEngine.UI.ref.dll_08FEAA520A2EFD60.mvfrm
Library/Bee/artifacts/mvdfrm/UnityEditor.CoreModule.dll_1B463C28AF096E99.mvfrm
Library/Bee/artifacts/mvdfrm/UnityEditor.DeviceSimulatorModule.dll_3464FE4D6AA2F178.mvfrm
Library/Bee/artifacts/mvdfrm/UnityEditor.DiagnosticsModule.dll_602F3D48F8A605C6.mvfrm
Library/Bee/artifacts/mvdfrm/UnityEditor.GraphViewModule.dll_108B5167D8552CDD.mvfrm
Library/Bee/artifacts/mvdfrm/UnityEditor.PackageManagerUIModule.dll_33F16B7F8CC466B5.mvfrm
Library/Bee/artifacts/mvdfrm/UnityEditor.QuickSearchModule.dll_EB3EBE56517D021F.mvfrm
Library/Bee/artifacts/mvdfrm/UnityEditor.SceneTemplateModule.dll_25CA0F337C784A80.mvfrm
Library/Bee/artifacts/mvdfrm/UnityEditor.TextCoreFontEngineModule.dll_02D08931C83E1FF7.mvfrm
Library/Bee/artifacts/mvdfrm/UnityEditor.TextCoreTextEngineModule.dll_4AB8BFA357C1D915.mvfrm
Library/Bee/artifacts/mvdfrm/UnityEditor.UIBuilderModule.dll_6513FE844B0DA611.mvfrm
Library/Bee/artifacts/mvdfrm/UnityEditor.UIElementsModule.dll_E4EFAD36F8182135.mvfrm
Library/Bee/artifacts/mvdfrm/UnityEditor.UIElementsSamplesModule.dll_56F71B23A9F86A88.mvfrm
Library/Bee/artifacts/mvdfrm/UnityEditor.UIServiceModule.dll_9E060FE73444F62B.mvfrm
Library/Bee/artifacts/mvdfrm/UnityEditor.UnityConnectModule.dll_AC6764D15D1469CF.mvfrm
Library/Bee/artifacts/mvdfrm/UnityEditor.dll_DCCADB60814D97AC.mvfrm
Library/Bee/artifacts/mvdfrm/UnityEngine.AIModule.dll_5F63767C546BE3CD.mvfrm
Library/Bee/artifacts/mvdfrm/UnityEngine.ARModule.dll_18D63B7FB1894296.mvfrm
Library/Bee/artifacts/mvdfrm/UnityEngine.AccessibilityModule.dll_586F7ACA7CEE721D.mvfrm
Library/Bee/artifacts/mvdfrm/UnityEngine.AndroidJNIModule.dll_6338960A4137900B.mvfrm
Library/Bee/artifacts/mvdfrm/UnityEngine.AnimationModule.dll_DF10CD90B2B20183.mvfrm
Library/Bee/artifacts/mvdfrm/UnityEngine.AssetBundleModule.dll_2F27F147B3E3B711.mvfrm
Library/Bee/artifacts/mvdfrm/UnityEngine.AudioModule.dll_7BECFECC7C16C9B5.mvfrm
Library/Bee/artifacts/mvdfrm/UnityEngine.ClothModule.dll_E2D55BC75633A899.mvfrm
Library/Bee/artifacts/mvdfrm/UnityEngine.ClusterInputModule.dll_2C03D9E70E9C3C95.mvfrm
Library/Bee/artifacts/mvdfrm/UnityEngine.ClusterRendererModule.dll_3A11C0BEDA5DFEFC.mvfrm
Library/Bee/artifacts/mvdfrm/UnityEngine.CoreModule.dll_3E670F7B570ED9C4.mvfrm
Library/Bee/artifacts/mvdfrm/UnityEngine.CrashReportingModule.dll_DBF536152D692FDC.mvfrm
Library/Bee/artifacts/mvdfrm/UnityEngine.DSPGraphModule.dll_E3A5A3A8FD404A02.mvfrm
Library/Bee/artifacts/mvdfrm/UnityEngine.DirectorModule.dll_DE54423F8ADF78E1.mvfrm
Library/Bee/artifacts/mvdfrm/UnityEngine.GIModule.dll_F79FBF89F01ACBE7.mvfrm
Library/Bee/artifacts/mvdfrm/UnityEngine.GameCenterModule.dll_8D85E025077880FC.mvfrm
Library/Bee/artifacts/mvdfrm/UnityEngine.GridModule.dll_1BD82B696F636FBB.mvfrm
Library/Bee/artifacts/mvdfrm/UnityEngine.HotReloadModule.dll_60598B968DE51D05.mvfrm
Library/Bee/artifacts/mvdfrm/UnityEngine.IMGUIModule.dll_B44C9E3342485D96.mvfrm
Library/Bee/artifacts/mvdfrm/UnityEngine.ImageConversionModule.dll_A603BE6F5C82B6F0.mvfrm
Library/Bee/artifacts/mvdfrm/UnityEngine.InputLegacyModule.dll_C06D0C664BD56D02.mvfrm
Library/Bee/artifacts/mvdfrm/UnityEngine.InputModule.dll_E262C67CF24EEE59.mvfrm
Library/Bee/artifacts/mvdfrm/UnityEngine.JSONSerializeModule.dll_B88704067C29D2A7.mvfrm
Library/Bee/artifacts/mvdfrm/UnityEngine.LocalizationModule.dll_6A50A439A6182F8E.mvfrm
Library/Bee/artifacts/mvdfrm/UnityEngine.ParticleSystemModule.dll_2F077F619B7ABB6A.mvfrm
Library/Bee/artifacts/mvdfrm/UnityEngine.PerformanceReportingModule.dll_086C9FB621E93283.mvfrm
Library/Bee/artifacts/mvdfrm/UnityEngine.Physics2DModule.dll_2BB6BD8153AEF918.mvfrm
Library/Bee/artifacts/mvdfrm/UnityEngine.PhysicsModule.dll_68376288F5E4ED26.mvfrm
Library/Bee/artifacts/mvdfrm/UnityEngine.ProfilerModule.dll_109A7B762438FFEE.mvfrm
Library/Bee/artifacts/mvdfrm/UnityEngine.RuntimeInitializeOnLoadManagerInitializerModule.dll_C67441E10D3A99E1.mvfrm
Library/Bee/artifacts/mvdfrm/UnityEngine.ScreenCaptureModule.dll_D26EB18B9095FF09.mvfrm
Library/Bee/artifacts/mvdfrm/UnityEngine.SharedInternalsModule.dll_2A14FD44D3B0B240.mvfrm
Library/Bee/artifacts/mvdfrm/UnityEngine.SpriteMaskModule.dll_76B252B528E81676.mvfrm
Library/Bee/artifacts/mvdfrm/UnityEngine.SpriteShapeModule.dll_48891EA26985EF1B.mvfrm
Library/Bee/artifacts/mvdfrm/UnityEngine.StreamingModule.dll_93A5BAE10239B8C1.mvfrm
Library/Bee/artifacts/mvdfrm/UnityEngine.SubstanceModule.dll_7050CF2A4D8CB6CF.mvfrm
Library/Bee/artifacts/mvdfrm/UnityEngine.SubsystemsModule.dll_E15FB916F72FFE89.mvfrm
Library/Bee/artifacts/mvdfrm/UnityEngine.TLSModule.dll_09A83CADDBBE847A.mvfrm
Library/Bee/artifacts/mvdfrm/UnityEngine.TerrainModule.dll_827DDDF7CBA33614.mvfrm
Library/Bee/artifacts/mvdfrm/UnityEngine.TerrainPhysicsModule.dll_2F822834B4BDB5F7.mvfrm
Library/Bee/artifacts/mvdfrm/UnityEngine.TextCoreFontEngineModule.dll_81300484DB3BDEC2.mvfrm
Library/Bee/artifacts/mvdfrm/UnityEngine.TextCoreTextEngineModule.dll_C9183AF66ABF97E0.mvfrm
Library/Bee/artifacts/mvdfrm/UnityEngine.TextRenderingModule.dll_FBAE239647CD7EFE.mvfrm
Library/Bee/artifacts/mvdfrm/UnityEngine.TilemapModule.dll_217A4578E360171D.mvfrm
Library/Bee/artifacts/mvdfrm/UnityEngine.UIElementsModule.dll_E59E1A7EFA5C3A80.mvfrm
Library/Bee/artifacts/mvdfrm/UnityEngine.UIElementsNativeModule.dll_7E6B2014FE3CD6D7.mvfrm
Library/Bee/artifacts/mvdfrm/UnityEngine.UIModule.dll_5AD714A9B0B2E979.mvfrm
Library/Bee/artifacts/mvdfrm/UnityEngine.UNETModule.dll_D10D5764A41DCF3D.mvfrm
Library/Bee/artifacts/mvdfrm/UnityEngine.UmbraModule.dll_F6C1AAE5093D7528.mvfrm
Library/Bee/artifacts/mvdfrm/UnityEngine.UnityAnalyticsModule.dll_4EA6F02B47A20D66.mvfrm
Library/Bee/artifacts/mvdfrm/UnityEngine.UnityConnectModule.dll_99C6E8E0579C6A7A.mvfrm
Library/Bee/artifacts/mvdfrm/UnityEngine.UnityCurlModule.dll_122D6EC222C5F370.mvfrm
Library/Bee/artifacts/mvdfrm/UnityEngine.UnityTestProtocolModule.dll_12B9D11603F3BFDE.mvfrm
Library/Bee/artifacts/mvdfrm/UnityEngine.UnityWebRequestAssetBundleModule.dll_DEC6BBB9DA9ACCB7.mvfrm
Library/Bee/artifacts/mvdfrm/UnityEngine.UnityWebRequestAudioModule.dll_8068F394A853FD1B.mvfrm
Library/Bee/artifacts/mvdfrm/UnityEngine.UnityWebRequestModule.dll_B7A2C6196777516F.mvfrm
Library/Bee/artifacts/mvdfrm/UnityEngine.UnityWebRequestTextureModule.dll_C0FF081168181450.mvfrm
Library/Bee/artifacts/mvdfrm/UnityEngine.UnityWebRequestWWWModule.dll_93DA80525A7F544C.mvfrm
Library/Bee/artifacts/mvdfrm/UnityEngine.VFXModule.dll_8A86D51CB22BEDE7.mvfrm
Library/Bee/artifacts/mvdfrm/UnityEngine.VRModule.dll_ADA93B2F526D6EF1.mvfrm
Library/Bee/artifacts/mvdfrm/UnityEngine.VehiclesModule.dll_56173BBF0509487C.mvfrm
Library/Bee/artifacts/mvdfrm/UnityEngine.VideoModule.dll_A0F683373EA8E55A.mvfrm
Library/Bee/artifacts/mvdfrm/UnityEngine.VirtualTexturingModule.dll_A2F7D483D6EB5762.mvfrm
Library/Bee/artifacts/mvdfrm/UnityEngine.WindModule.dll_B4B5EAA3E845582D.mvfrm
Library/Bee/artifacts/mvdfrm/UnityEngine.XRModule.dll_E067FE33DBA7BC4F.mvfrm
Library/Bee/artifacts/mvdfrm/UnityEngine.dll_0F6F2238DFC12491.mvfrm
Library/Bee/artifacts/mvdfrm/Unity.Android.Gradle.dll_41C4A2A966000501.mvfrm
Library/Bee/artifacts/mvdfrm/Unity.Android.Types.dll_59E2C9C3A3B91ACB.mvfrm
Library/Bee/artifacts/mvdfrm/Unity.VisualScripting.Antlr3.Runtime.dll_2B2768996F4CE217.mvfrm